…
**Alternative with example file**
```r
# Process example file
building_sf <- get_example_data()

# > print(building_sf)
# Simple feature collection with 91 features and 4 fields
# Geometry type: POLYGON
# Dimension:     XY
# Bounding box:  xmin: 370231.4 ymin: 5808336 xmax: 370921.3 ymax: 5808949
# Projected CRS: ETRS89 / UTM zone 33N
# # A tibble: 91 × 5
#    part_id                                                   geometry height bldg_id file 
#  * <chr>                                                <POLYGON [m]>  <dbl> <chr>   <chr>
#  1 DEBE06YYD00000lo_01 ((370455.6 5808769, 370461 5808772, 370462.2 …   3.37 DEBE06… exam…
#  2 DEBE06YYD00001AQ    ((370571.2 5808740, 370584.9 5808743, 370587.…   8.00 DEBE06… exam…
#  3 DEBE06YYD00001Ai_01 ((370551.1 5808764, 370559.8 5808766, 370562.…   7.99 DEBE06… exam…
#  4 DEBE06YYD00001Gw    ((370538.5 5808760, 370547.2 5808763, 370549.…   8.50 DEBE06… exam…
#  5 DEBE06YYD00001hw_01 ((370555 5808436, 370560 5808443, 370589.2 58…  21.2  DEBE06… exam…
#  6 DEBE06YYD00001hw_02 ((370582.5 5808413, 370589 5808423, 370600.5 …   5.27 DEBE06… exam…
#  7 DEBE06YYD00001hw_03 ((370574.9 5808452, 370581.2 5808461, 370582.…   7.49 DEBE06… exam…
#  8 DEBE06YYD00001hw_04 ((370584.6 5808399, 370590.2 5808407, 370606.…  12.2  DEBE06… exam…
#  9 DEBE06YYD00001hw_05 ((370554.2 5808439, 370557.6 5808444, 370558.…  10.2  DEBE06… exam…
# 10 DEBE06YYD00002gi    ((370395.3 5808737, 370395.5 5808738, 370396 …   6.37 DEBE06… exam…
# # ℹ 81 more rows
# # ℹ Use `print(n = ...)` to see more rows
…
